{
  "Name": "Baker",
  "Flags": [
    "placeable"
  ],
  "Graphics": {
    "Name": "",
    "Flags": [],
    "GraphicDataPath": "Baker.png",
    "GraphicDimensions": {
      "Name": "",
      "Flags": [],
      "x": 32,
      "y": 32
    },
    "Texture": {
      "instanceID": -22620
    },
    "NodeSize": {
      "x": 0.0,
      "y": 0.0
    },
    "Layer": 0
  },
  "OccupiesTile": false,
  "ActorRole": {
    "Name": "",
    "Flags": [],
    "Value": "Producer"
  },
  "ActorLimit": 1,
  "Produces": "",
  "Production": {
    "Name": "",
    "Flags": [],
    "Duration": 0.5,
    "Intake": [
      {
        "Name": "",
        "Flags": [],
        "Item": "Wood",
        "Amount": 3
      }
    ],
    "Product": [
      {
        "Name": "",
        "Flags": [],
        "Item": "Bread",
        "Amount": 1
      }
    ]
  }
}