{
  "Name": "Farm",
  "Flags": [
    "placeable"
  ],
  "Graphics": {
    "GraphicDataPath": "Farm.png",
    "GraphicDimensions": {
      "x": 32,
      "y": 32
    }
  },
  "ActorRole": {
    "Value": "Worker"
  },
  "Produces": "Wood",
  "ActorLimit": 2,
  "Construction": {
    "WorkNeeded": 10
  }
}