{
  "Name": "Basic District",
  "Flags": [
    "placeable"
  ],
  "OccupiesTile": true,
  "Graphics": {
    "GraphicDataPath": "BasicDistrict.png",
    "GraphicDimensions": {
      "x": 32,
      "y": 32
    },
    "Layer": 1
  },
  "WorkRange": 2
}