%YAML 1.1
%TAG !u! tag:unity3d.com,2011:
--- !u!1 &7372180468256724101
GameObject:
  m_ObjectHideFlags: 0
  m_CorrespondingSourceObject: {fileID: 0}
  m_PrefabInstance: {fileID: 0}
  m_PrefabAsset: {fileID: 0}
  serializedVersion: 6
  m_Component:
  - component: {fileID: 64906201664927771}
  m_Layer: 5
  m_Name: WorkerInfo
  m_TagString: Untagged
  m_Icon: {fileID: 0}
  m_NavMeshLayer: 0
  m_StaticEditorFlags: 0
  m_IsActive: 1
--- !u!224 &64906201664927771
RectTransform:
  m_ObjectHideFlags: 0
  m_CorrespondingSourceObject: {fileID: 0}
  m_PrefabInstance: {fileID: 0}
  m_PrefabAsset: {fileID: 0}
  m_GameObject: {fileID: 7372180468256724101}
  m_LocalRotation: {x: 0, y: 0, z: 0, w: 1}
  m_LocalPosition: {x: 0, y: 0, z: 0}
  m_LocalScale: {x: 1, y: 1, z: 1}
  m_Children:
  - {fileID: 6329565799181659354}
  m_Father: {fileID: 0}
  m_RootOrder: 0
  m_LocalEulerAnglesHint: {x: 0, y: 0, z: 0}
  m_AnchorMin: {x: 0.5, y: 0.5}
  m_AnchorMax: {x: 0.5, y: 0.5}
  m_AnchoredPosition: {x: 0, y: 25}
  m_SizeDelta: {x: 80, y: 50}
  m_Pivot: {x: 0.5, y: 0.5}
--- !u!1001 &4259490164966962368
PrefabInstance:
  m_ObjectHideFlags: 0
  serializedVersion: 2
  m_Modification:
    m_TransformParent: {fileID: 64906201664927771}
    m_Modifications:
    - target: {fileID: 7534571863545656848, guid: 0852d9795ec3ef144be395001b775518,
        type: 3}
      propertyPath: m_Name
      value: ItemStackHUD
      objectReference: {fileID: 0}
    - target: {fileID: 7839532421649209370, guid: 0852d9795ec3ef144be395001b775518,
        type: 3}
      propertyPath: m_Pivot.x
      value: 0.5
      objectReference: {fileID: 0}
    - target: {fileID: 7839532421649209370, guid: 0852d9795ec3ef144be395001b775518,
        type: 3}
      propertyPath: m_Pivot.y
      value: 0.5
      objectReference: {fileID: 0}
    - target: {fileID: 7839532421649209370, guid: 0852d9795ec3ef144be395001b775518,
        type: 3}
      propertyPath: m_RootOrder
      value: 0
      objectReference: {fileID: 0}
    - target: {fileID: 7839532421649209370, guid: 0852d9795ec3ef144be395001b775518,
        type: 3}
      propertyPath: m_AnchorMax.x
      value: 0.5
      objectReference: {fileID: 0}
    - target: {fileID: 7839532421649209370, guid: 0852d9795ec3ef144be395001b775518,
        type: 3}
      propertyPath: m_AnchorMax.y
      value: 0.5
      objectReference: {fileID: 0}
    - target: {fileID: 7839532421649209370, guid: 0852d9795ec3ef144be395001b775518,
        type: 3}
      propertyPath: m_AnchorMin.x
      value: 0.5
      objectReference: {fileID: 0}
    - target: {fileID: 7839532421649209370, guid: 0852d9795ec3ef144be395001b775518,
        type: 3}
      propertyPath: m_AnchorMin.y
      value: 0.5
      objectReference: {fileID: 0}
    - target: {fileID: 7839532421649209370, guid: 0852d9795ec3ef144be395001b775518,
        type: 3}
      propertyPath: m_SizeDelta.x
      value: 35
      objectReference: {fileID: 0}
    - target: {fileID: 7839532421649209370, guid: 0852d9795ec3ef144be395001b775518,
        type: 3}
      propertyPath: m_SizeDelta.y
      value: 35
      objectReference: {fileID: 0}
    - target: {fileID: 7839532421649209370, guid: 0852d9795ec3ef144be395001b775518,
        type: 3}
      propertyPath: m_LocalPosition.x
      value: 0
      objectReference: {fileID: 0}
    - target: {fileID: 7839532421649209370, guid: 0852d9795ec3ef144be395001b775518,
        type: 3}
      propertyPath: m_LocalPosition.y
      value: 0
      objectReference: {fileID: 0}
    - target: {fileID: 7839532421649209370, guid: 0852d9795ec3ef144be395001b775518,
        type: 3}
      propertyPath: m_LocalPosition.z
      value: 0
      objectReference: {fileID: 0}
    - target: {fileID: 7839532421649209370, guid: 0852d9795ec3ef144be395001b775518,
        type: 3}
      propertyPath: m_LocalRotation.w
      value: 1
      objectReference: {fileID: 0}
    - target: {fileID: 7839532421649209370, guid: 0852d9795ec3ef144be395001b775518,
        type: 3}
      propertyPath: m_LocalRotation.x
      value: 0
      objectReference: {fileID: 0}
    - target: {fileID: 7839532421649209370, guid: 0852d9795ec3ef144be395001b775518,
        type: 3}
      propertyPath: m_LocalRotation.y
      value: 0
      objectReference: {fileID: 0}
    - target: {fileID: 7839532421649209370, guid: 0852d9795ec3ef144be395001b775518,
        type: 3}
      propertyPath: m_LocalRotation.z
      value: 0
      objectReference: {fileID: 0}
    - target: {fileID: 7839532421649209370, guid: 0852d9795ec3ef144be395001b775518,
        type: 3}
      propertyPath: m_AnchoredPosition.x
      value: 0
      objectReference: {fileID: 0}
    - target: {fileID: 7839532421649209370, guid: 0852d9795ec3ef144be395001b775518,
        type: 3}
      propertyPath: m_AnchoredPosition.y
      value: 25
      objectReference: {fileID: 0}
    - target: {fileID: 7839532421649209370, guid: 0852d9795ec3ef144be395001b775518,
        type: 3}
      propertyPath: m_LocalEulerAnglesHint.x
      value: 0
      objectReference: {fileID: 0}
    - target: {fileID: 7839532421649209370, guid: 0852d9795ec3ef144be395001b775518,
        type: 3}
      propertyPath: m_LocalEulerAnglesHint.y
      value: 0
      objectReference: {fileID: 0}
    - target: {fileID: 7839532421649209370, guid: 0852d9795ec3ef144be395001b775518,
        type: 3}
      propertyPath: m_LocalEulerAnglesHint.z
      value: 0
      objectReference: {fileID: 0}
    m_RemovedComponents: []
  m_SourcePrefab: {fileID: 100100000, guid: 0852d9795ec3ef144be395001b775518, type: 3}
--- !u!224 &6329565799181659354 stripped
RectTransform:
  m_CorrespondingSourceObject: {fileID: 7839532421649209370, guid: 0852d9795ec3ef144be395001b775518,
    type: 3}
  m_PrefabInstance: {fileID: 4259490164966962368}
  m_PrefabAsset: {fileID: 0}
