{
  "Name": "Warehouse",
  "Flags": [
    "placeable"
  ],
  "OccupiesTile": false,
  "Graphics": {
    "GraphicDataPath": "Warehouse.png",
    "GraphicDimensions": {
      "x": 32,
      "y": 32
    },
    "Scale": 0.15
  }
}